<?xml version="1.0" encoding="UTF-8" standalone="no"?>
<svg
   xmlns:dc="http://purl.org/dc/elements/1.1/"
   xmlns:cc="http://creativecommons.org/ns#"
   xmlns:rdf="http://www.w3.org/1999/02/22-rdf-syntax-ns#"
   xmlns:svg="http://www.w3.org/2000/svg"
   xmlns="http://www.w3.org/2000/svg"
   xmlns:xlink="http://www.w3.org/1999/xlink"
   xmlns:sodipodi="http://sodipodi.sourceforge.net/DTD/sodipodi-0.dtd"
   xmlns:inkscape="http://www.inkscape.org/namespaces/inkscape"
   width="256"
   height="256"
   viewBox="0 0 67.733331 67.733331"
   version="1.1"
   id="svg8"
   inkscape:version="1.0.1 (3bc2e813f5, 2020-09-07)"
   sodipodi:docname="dial_handle_pressed.svg">
  <defs
     id="defs2">
    <linearGradient
       inkscape:collect="always"
       id="linearGradient871">
      <stop
         style="stop-color:#0061d0;stop-opacity:1"
         offset="0"
         id="stop867" />
      <stop
         style="stop-color:#2f2f2f;stop-opacity:1"
         offset="1"
         id="stop869" />
    </linearGradient>
    <radialGradient
       inkscape:collect="always"
       xlink:href="#linearGradient871"
       id="radialGradient836"
       gradientUnits="userSpaceOnUse"
       gradientTransform="matrix(1.6740835,-4.7506575e-6,4.71891e-6,1.6645879,-22.884857,-44.649753)"
       cx="33.949116"
       cy="67.183281"
       fx="33.949116"
       fy="67.183281"
       r="33.37394" />
  </defs>
  <sodipodi:namedview
     id="base"
     pagecolor="#ffffff"
     bordercolor="#666666"
     borderopacity="1.0"
     inkscape:pageopacity="0.0"
     inkscape:pageshadow="2"
     inkscape:zoom="2.8028359"
     inkscape:cx="128.44521"
     inkscape:cy="114.97856"
     inkscape:document-units="px"
     inkscape:current-layer="g879"
     inkscape:document-rotation="0"
     showgrid="false"
     units="px"
     inkscape:window-width="1920"
     inkscape:window-height="1048"
     inkscape:window-x="0"
     inkscape:window-y="0"
     inkscape:window-maximized="1" />
  <metadata
     id="metadata5">
    <rdf:RDF>
      <cc:Work
         rdf:about="">
        <dc:format>image/svg+xml</dc:format>
        <dc:type
           rdf:resource="http://purl.org/dc/dcmitype/StillImage" />
        <dc:title />
      </cc:Work>
    </rdf:RDF>
  </metadata>
  <g
     inkscape:groupmode="layer"
     id="layer2"
     inkscape:label="Ebene 1"
     style="display:inline">
    <g
       id="g879">
      <circle
         style="fill:url(#radialGradient836);fill-opacity:1;stroke:#0061d0;stroke-width:0.985451;stroke-miterlimit:4;stroke-dasharray:none;stroke-opacity:1"
         id="path847"
         cx="33.866665"
         cy="33.866665"
         r="33.37394" />
    </g>
  </g>
</svg>
